[{
	"first":"Kantor",
	"last":"Polisi",
	"warna":"#149BE5",
	"image":"https://i.ibb.co/WGqsYpy/polisi.png",
	"number": "0234-272708",
	"data": "polisi"
},
{
	"first":"Rumah",
	"last":"Sakit",
	"warna":"#30B900",
	"image":"https://i.ibb.co/VWTnVK3/sakit.png",
	"number": "0234-272655",
	"data": "kesehatan"
},
{
	"first":"Pemadam",
	"last":"Kebakaran",
	"warna":"#FF1717",
	"image":"https://i.ibb.co/cgr9Ghn/kebakaran.png",
	"number": "0234271113",
	"data": "pemadam"
}]