[
    {
        "id": "045e17de-9083-4d3a-b3ba-550cde535f73",
        "jenisName": "Masjid / Mushola",
        "createdAt": "2019-02-11T05:41:56.000Z",
        "updatedAt": "2019-02-12T07:14:10.000Z",
        "image"    : "https://i.ibb.co/sFfYytZ/002-mosque.png"
    },
    {
        "id": "46dcea55-0e01-4706-90c3-a17be9748799",
        "jenisName": "Klenteng",
        "createdAt": "2019-02-12T07:13:49.000Z",
        "updatedAt": "2019-02-12T07:13:49.000Z",
        "image"    : "https://i.ibb.co/Sczv78L/005-building.png"
    },
    {
        "id": "e7bd7753-afdf-4c4e-9ee7-896f20e30a6b",
        "jenisName": "Vihara",
        "createdAt": "2019-02-12T07:13:38.000Z",
        "updatedAt": "2019-02-12T07:13:38.000Z",
        "image"    : "https://i.ibb.co/fk82pGR/006-construction.png"
    },
    {
        "id": "246723d4-23d7-45a8-ad2d-ae9dfc0f74dc",
        "jenisName": "Gereja",
        "createdAt": "2019-02-11T05:43:06.000Z",
        "updatedAt": "2019-02-11T05:43:06.000Z",
        "image"    : "https://i.ibb.co/MMG727H/003-cross.png"
    },
    {
        "id": "fcfbc8bf-da3b-4111-817e-b2414e88976a",
        "jenisName": "Pura",
        "createdAt": "2019-02-11T05:43:06.000Z",
        "updatedAt": "2019-02-11T05:43:06.000Z",
        "image"    : "https://i.ibb.co/YDFqrm7/Pura.png"
    }
]